{
    "model_name": "all-mpnet-base-v2",
    "dataset_path": "/people/laiking/data/despin/outcome_similarity/splits",
    "batch_size": 32,
    "epochs": 5,
    "warmup_steps": 100,
    "evaluation_steps": 100,
    "split": 7
}